{
    "brand":"Pages Test",
    "title":"Pages Test",
    "text":"Lorem ipsum dolor sit amet, consectetur adipiscing elit, sed do eiusmod tempor incididunt ut labore et dolore magna aliqua. Accumsan sit amet nulla facilisi morbi. Nec feugiat nisl pretium fusce id velit ut tortor. Facilisi nullam vehicula ipsum a. At urna condimentum mattis pellentesque. A iaculis at erat pellentesque adipiscing. Facilisi morbi tempus iaculis urna id volutpat lacus laoreet non. Amet tellus cras adipiscing enim eu turpis egestas pretium aenean. Elit at imperdiet dui accumsan. Elementum tempus egestas sed sed risus pretium. Arcu felis bibendum ut tristique et egestas. Eget magna fermentum iaculis eu. Fermentum leo vel orci porta. Nec tincidunt praesent semper feugiat nibh. Hendrerit gravida rutrum quisque non tellus orci ac auctor augue. Id leo in vitae turpis massa sed elementum tempus. Volutpat odio facilisis mauris sit amet massa vitae. Eu scelerisque felis imperdiet proin fermentum leo vel. Tellus in metus vulputate eu scelerisque felis imperdiet.",
    "footer" : "Be creative.",
    "mediaLinks" : {
        "navLink1" : {"id":"navLink1","url":"media/file_example_JPG_100kB.jpg","text":"100 kb Image"},
        "navLink2" : {"id":"navLink2","url":"media/file_example_JPG_500kB.jpg","text":"500 kb Image"},
        "navLink3" : {"id":"navLink3","url":"media/file_example_JPG_1MB.jpg","text":"1 mb Image"},
        "navLink4" : {"id":"navLink4","url":"media/file_example_JPG_2500kB.jpg","text":"2500 kb Image"}
      }
}